JNLP agent connected from 127.0.0.1/127.0.0.1
Slave.jar version: 3.7
This is a Windows agent
Agent successfully connected and online
ERROR: Connection terminated
[8mha:////4LbBNR3Wp2e2qEbIE5qn+iWiu63T4qdJk5N6SUdC5B2mAAAAVx+LCAAAAAAAAP9b85aBtbiIQSmjNKU4P08vOT+vOD8nVc8DzHWtSE4tKMnMz/PLL0mV3NWzufebKBsTA0NFEYMUmgZnCA1SyAABjCCFBQC2xNaiYAAAAA==[0mjava.nio.channels.ClosedChannelException
	at org.jenkinsci.remoting.protocol.NetworkLayer.onRecvClosed(NetworkLayer.java:154)
	at org.jenkinsci.remoting.protocol.impl.NIONetworkLayer.ready(NIONetworkLayer.java:179)
	at org.jenkinsci.remoting.protocol.IOHub$OnReady.run(IOHub.java:721)
	at jenkins.util.ContextResettingExecutorService$1.run(ContextResettingExecutorService.java:28)
	at java.util.concurrent.ThreadPoolExecutor.runWorker(Unknown Source)
	at java.util.concurrent.ThreadPoolExecutor$Worker.run(Unknown Source)
	at java.lang.Thread.run(Unknown Source)
