Started at Wed Mar 28 21:38:56 UTC 2018
possibly trimming C:\Users\enclave\.jenkins\fingerprints\6c\58\741c4fec2f732c30d3eb2a067d0d.xml
possibly trimming C:\Users\enclave\.jenkins\fingerprints\74\0f\6675d4d7801b1797c764b4457dd7.xml
possibly trimming C:\Users\enclave\.jenkins\fingerprints\b4\ca\02fb3cea4897d2cf8ea4ed74f544.xml
Cleaned up 0 records
Finished at Wed Mar 28 21:38:56 UTC 2018. 20ms
