Started at Wed Mar 28 02:25:27 UTC 2018
Checking abc
Checking Redi2
Checking RM8_ChromeAll
Checking RM8_ChromeDataVerificationCat
Checking RM8_ChromeSmokeCat
Checking RM8_ChromeTuesdayDemoCat
Checking RM8_IE11All
Checking RM8_ParallelOnBrowserStack
Checking RM8_ParallelOnLocal
Checking RM8_ParallelOnLocalNBrowserstack
Finished at Wed Mar 28 02:25:27 UTC 2018. 30ms
